{
  "variables": {
    "iso_name": "ubuntu-18.04-server-amd64.iso",
    "iso_url": "https://old-releases.ubuntu.com/releases/18.04/ubuntu-18.04-server-amd64.iso",
    "iso_path": "{{pwd}}/iso/{{user `iso_name`}}",
    "iso_sha256": "sha256:a7f5c7b0cdd0e9560d78f1e47660e066353bb8a79eb78d1fc3f4ea62a07e6cbc",
    "timestamp": "{{isotime `2006-01-02`}}",
    "headless": "false",
    "boot_wait": "5s",

    "local_iso_url": "", 
    "local_iso": "{{user `local_iso_url`}}/{{user `iso_name`}}",
    "output": "",
        
    "name": "ubuntu-18.04-server",
    "cpu": "2",
    "cores": "2",
    "ram": "2048",
    "disk_size": "102400",
    "virtual_disk_dev": "lsisas1068",
    "virtual_version": "17",
    "virtual_firmware": "efi",
    "vmware_guest_os_type": "ubuntu-64",
    "virtualbox_guest_os_type": "Ubuntu_64",
    "communicator_username": "root",
    "communicator_password": "root",
    "lowpriv_user": "ubuntu",

    "eula": "Clean Ubuntu 18.04 server build\n\nBuild time: {{user `timestamp`}}\nDefault credentials: {{user `lowpriv_user`}}:{{user `lowpriv_user`}}, {{user `communicator_username`}}:{{user `communicator_password`}}"
  },

  "builders": [
    {
      "type": "vmware-iso",
      "format": "ova",
      "headless": "{{user `headless`}}",
      "name": "vmware",
      "vm_name": "vmware-{{user `name`}}_{{user `timestamp`}}",
      "cpus": "{{user `cpu`}}",
      "cores": "{{user `cores`}}",
      "memory": "{{user `ram`}}",
      "disk_size": "{{user `disk_size`}}",
      "disk_type_id": 0,
      "sound": false,
      "guest_os_type": "{{user `vmware_guest_os_type`}}",
      "communicator": "ssh",
      "ssh_username": "{{user `communicator_username`}}",
      "ssh_password": "{{user `communicator_password`}}",
      "ssh_pty": true,
      "ssh_timeout": "60m",
      "ssh_handshake_attempts": "1337",
      "shutdown_command": "shutdown -P now",
      "boot_wait": "{{user `boot_wait`}}",
      "boot_command": [
        "<esc><wait><esc><wait><enter><wait>",
        "/install/vmlinuz ",
        "initrd=/install/initrd.gz ",
        "auto-install/enable=true ",
        "debconf/priority=critical ",
        "ipv6.disable=1 ",
        "netcfg/get_hostname=ubuntu-server1804 debconf/frontend=noninteractive ",
        "preseed/url=http://{{.HTTPIP}}:{{.HTTPPort}}/preseed.cfg ",
        "<enter>"
      ],
      "iso_urls": [
        "{{user `iso_path`}}",
        "{{user `local_iso`}}",
        "{{user `iso_url`}}"
      ],
      "ovftool_options": ["--eula={{user `eula`}}"],
      "iso_checksum": "{{user `iso_sha256`}}",
      "iso_target_path": "{{user `iso_path`}}",
      "http_directory": "files/answer_files/linux/ubuntu/old",
      "output_directory": "vmware_output_{{user `name`}}",
      "vmx_data": {
        "scsi0.virtualDev": "{{user `virtual_disk_dev`}}",
        "virtualHW.version": "{{user `virtual_version`}}"
      }
    },
    {
      "type": "virtualbox-iso",
      "format": "ova",
      "headless": "{{user `headless`}}",
      "name": "virtualbox",
      "vm_name": "virtualbox-{{user `name`}}_{{user `timestamp`}}",
      "disk_size": "{{user `disk_size`}}",
      "guest_os_type": "{{user `virtualbox_guest_os_type`}}",
      "communicator": "ssh",
      "ssh_username": "{{user `communicator_username`}}",
      "ssh_password": "{{user `communicator_password`}}",
      "ssh_pty": true,
      "ssh_timeout": "60m",
      "ssh_handshake_attempts": "1337",
      "shutdown_command": "shutdown -P now",
      "boot_wait": "{{user `boot_wait`}}",
      "boot_command": [
        "<enter><wait>",
        "<f6><esc>",
        "<bs><bs><bs><bs><bs><bs><bs><bs><bs><bs>",
        "<bs><bs><bs><bs><bs><bs><bs><bs><bs><bs>",
        "<bs><bs><bs><bs><bs><bs><bs><bs><bs><bs>",
        "<bs><bs><bs><bs><bs><bs><bs><bs><bs><bs>",
        "<bs><bs><bs><bs><bs><bs><bs><bs><bs><bs>",
        "<bs><bs><bs><bs><bs><bs><bs><bs><bs><bs>",
        "<bs><bs><bs><bs><bs><bs><bs><bs><bs><bs>",
        "<bs><bs><bs><bs><bs><bs><bs><bs><bs><bs>",
        "<bs><bs><bs>",
        "/install/vmlinuz ",
        "initrd=/install/initrd.gz ",
        "auto-install/enable=true ",
        "debconf/priority=critical ",
        "ipv6.disable=1 ",
        "netcfg/get_hostname=ubuntu-server1004 debconf/frontend=noninteractive ",
        "preseed/url=http://{{.HTTPIP}}:{{.HTTPPort}}/preseed.cfg ",
        "<enter>"
      ],
      "iso_urls": [
        "{{user `iso_path`}}",
        "{{user `local_iso`}}",
        "{{user `iso_url`}}"
      ],
      "iso_checksum": "{{user `iso_sha256`}}",
      "iso_target_path": "{{user `iso_path`}}",
      "http_directory": "files/answer_files/linux/ubuntu/old",
      "output_directory": "virtualbox_output_{{user `name`}}",
      "guest_additions_mode": "disable",
      "vboxmanage": [
        ["modifyvm", "{{.Name}}", "--nat-localhostreachable1", "on"],
        ["modifyvm", "{{.Name}}", "--memory", "{{user `ram`}}"],
        ["modifyvm", "{{.Name}}", "--cpus", "{{user `cpu`}}"],
        ["modifyvm", "{{.Name}}", "--vram", "256"],
        ["modifyvm", "{{.Name}}", "--audio-driver", "none"]
      ],
      "export_opts": [
        "--manifest",
        "--vsys", "0",
        "--eula", "{{user `eula`}}"
      ]
    },
    {
      "type": "qemu",
      "format": "qcow2",
      "accelerator": "kvm",
      "net_device": "virtio-net",
      "disk_interface": "virtio",
      "headless": "{{user `headless`}}",
      "name": "qemu",
      "vm_name": "qemu-{{user `name`}}_{{user `timestamp`}}",
      "disk_size": "{{user `disk_size`}}",
      "disk_cache": "none",
      "disk_discard": "unmap",
      "disk_compression": true,
      "communicator": "ssh",
      "ssh_username": "{{user `communicator_username`}}",
      "ssh_password": "{{user `communicator_password`}}",
      "ssh_pty": true,
      "ssh_timeout": "60m",
      "ssh_handshake_attempts": "1337",
      "shutdown_command": "shutdown -P now",
      "boot_wait": "{{user `boot_wait`}}",
      "boot_command": [
        "<esc><wait><esc><wait><enter><wait>",
        "/install/vmlinuz ",
        "initrd=/install/initrd.gz ",
        "auto-install/enable=true ",
        "debconf/priority=critical ",
        "ipv6.disable=1 ",
        "netcfg/get_hostname=ubuntu-server1804 debconf/frontend=noninteractive ",
        "preseed/url=http://{{.HTTPIP}}:{{.HTTPPort}}/preseed.cfg ",
        "<enter>"
      ],
      "iso_urls": [
        "{{user `iso_path`}}",
        "{{user `local_iso`}}",
        "{{user `iso_url`}}"
      ],
      "iso_checksum": "{{user `iso_sha256`}}",
      "iso_target_path": "{{user `iso_path`}}",
      "http_directory": "files/answer_files/linux/ubuntu/old",
      "output_directory": "qemu_output_{{user `name`}}",
      "qemuargs": [
        ["-m", "{{user `ram`}}M"],
        ["-cpu", "host"],
        ["-smp", "cpus={{user `cpu`}}"]
      ]
    }
  ],

  "provisioners": [
    {
      "type": "shell",
      "script": "files/scripts/linux/sysprep.sh"
    }
  ],

  "post-processors": [
    {
      "type": "shell-local",
      "only_on": ["linux"],
      "environment_vars": [
        "NAME={{user `name`}}",
        "TIMESTAMP={{user `timestamp`}}",
        "OUTPUT={{user `output`}}"
      ],
      "script": "files/scripts/create-checksums.sh"
    },
    {
      "type": "shell-local",
      "only_on": ["windows"],
      "execute_command": ["powershell.exe", "{{.vars}}", "{{.script}}"],
      "env_var_format": "$env:%s=\"%s\"; ",
      "environment_vars": [
        "NAME={{user `name`}}",
        "TIMESTAMP={{user `timestamp`}}"
      ],
      "script": "files/scripts/create-checksums.ps1"
    }
  ]
}
